<svg width="36" height="36" viewBox="0 0 36 36" xmlns="http://www.w3.org/2000/svg">
<path d="M25.049 14.8903L21.92 14.8926L21.9201 17.2766L25.0491 17.2785C25.7056 17.2785 26.2397 16.7428 26.2396 16.0844C26.2396 15.426 25.7055 14.8903 25.049 14.8903Z" fill="currentColor"/>
<path d="M24.2949 19.388L21.9202 19.3881L21.9203 21.7697L24.171 21.7695C24.8276 21.7695 25.3616 21.2338 25.3616 20.5753C25.3616 20.2562 25.2375 19.9561 25.0123 19.7305C24.817 19.5349 24.5658 19.4159 24.2949 19.388Z" fill="currentColor"/>
<path d="M19.811 11.6665C19.811 11.3265 19.6785 11.0069 19.438 10.7671C19.1942 10.524 18.8568 10.3983 18.5125 10.3984L15.3782 10.3984C14.139 10.3985 12.9527 10.6767 11.8522 11.2252C11.8444 11.2291 11.8364 11.2329 11.8285 11.2366C10.6988 11.7648 9.65109 12.8528 8.72677 13.8128C8.53678 14.0463 8.21735 14.2826 7.81439 14.2947L0.927141 14.2949C0.415055 14.2948 0 14.7101 0 15.2222L0.00028125 21.5108C0.00028125 22.0236 0.416391 22.439 0.929109 22.4381L7.81242 22.4255H7.81432C8.09058 22.4255 8.35587 22.534 8.55302 22.7277L10.1535 24.2994C11.599 25.5693 13.4536 26.2681 15.3788 26.268H15.5411C15.407 25.9118 15.3331 25.5264 15.3331 25.1239V25.0242C15.3331 24.0719 15.744 23.2135 16.3974 22.6179C15.6741 21.8725 15.2274 20.8567 15.2274 19.7377V19.0214C14.6892 19.302 14.078 19.4609 13.4309 19.4609H11.8139C11.2461 19.4609 10.7576 19.0245 10.731 18.4572C10.7024 17.8515 11.185 17.3515 11.7842 17.3515H13.431C14.424 17.3515 15.2329 16.5377 15.2275 15.5404C15.2243 14.9645 15.7061 14.5025 16.2819 14.5025C16.8642 14.5025 17.3363 14.9747 17.3363 15.5572V19.7377C17.3363 20.8554 18.2435 21.7648 19.3585 21.7648H19.8117L19.811 11.6665Z" fill="currentColor"/>
<path d="M17.4418 25.0237C17.3887 25.6586 17.9458 26.3047 18.6426 26.2678L23.4271 26.2675C24.0836 26.2674 24.6177 25.7318 24.6177 25.0734C24.6177 24.415 24.0835 23.8793 23.427 23.8793L18.5824 23.8797C17.9535 23.8797 17.4418 24.3929 17.4418 25.0237Z" fill="currentColor"/>
<path d="M24.1191 10.3993L21.6748 10.3994C21.8353 10.7967 21.9198 11.225 21.9198 11.6664L21.9199 12.7811L24.2448 12.781C24.8416 12.7186 25.3098 12.2098 25.3098 11.5934C25.3097 10.935 24.7756 10.3993 24.1191 10.3993Z" fill="currentColor"/>
<path d="M35.7476 17.4071C33.238 14.4662 31.9158 10.5899 31.9241 6.19713C31.9246 5.91082 31.8087 5.63653 31.6031 5.43741C31.3975 5.23821 31.1193 5.13112 30.8336 5.14104C26.4511 5.29095 21.8883 3.41388 19.2064 0.358805C19.0045 0.128813 18.7147 0.000773437 18.4068 0C18.1008 0.00217969 17.8109 0.137109 17.6122 0.369984C16.2597 1.95476 14.455 3.24591 12.3932 4.10386C10.3897 4.93762 8.19352 5.34642 6.04259 5.28778C5.7548 5.27934 5.47488 5.39058 5.2702 5.59406C5.06552 5.79769 4.95316 6.0762 4.95942 6.3649C5.00576 8.50381 4.2518 10.7914 3.69056 12.1854L7.36615 12.1852C8.37605 11.1384 9.5187 9.99169 10.9233 9.33138C12.3152 8.63986 13.814 8.28914 15.3781 8.28907L24.1191 8.28998C25.9384 8.28998 27.4186 9.77182 27.4186 11.5933C27.4187 12.2413 27.2306 12.8458 26.9074 13.3565C27.7767 13.952 28.3485 14.9524 28.3486 16.0843C28.3487 17.1998 27.793 18.1874 26.9447 18.7858C27.2865 19.3145 27.4705 19.9306 27.4705 20.5753C27.4705 21.6527 26.9526 22.6112 26.1531 23.2146C26.5147 23.7445 26.7266 24.3844 26.7266 25.0732C26.7267 26.8947 25.2467 28.3767 23.4274 28.3768L15.379 28.3772C12.9299 28.3774 10.571 27.4841 8.73668 25.8619C8.7229 25.8498 8.70947 25.8372 8.69639 25.8244L7.38408 24.5357L4.34531 24.5412C4.91625 26.247 4.96498 28.23 4.95907 30.2792C4.95823 30.5654 5.07382 30.8398 5.2792 31.0392C5.48466 31.2384 5.76169 31.3436 6.04828 31.3364C8.03454 31.2708 10.2654 31.645 12.3291 32.3902C14.5151 33.1797 16.3555 34.315 17.6511 35.6734C17.8502 35.8821 18.1259 36.0001 18.414 36.0001H18.4198C18.71 35.9985 18.9868 35.8772 19.1848 35.665C20.554 34.1975 22.39 33.005 24.4943 32.2166C26.5295 31.4541 28.7181 31.0987 30.8244 31.1891C31.1143 31.2007 31.3969 31.0937 31.605 30.8912C31.813 30.6886 31.9284 30.4092 31.9238 30.1189C31.8552 25.7472 33.212 21.7204 35.7443 18.7803C36.084 18.3859 36.0854 17.8028 35.7476 17.4071Z" fill="currentColor"/>
</svg>
