<svg width="36" height="36" viewBox="0 0 36 36" xmlns="http://www.w3.org/2000/svg">
<path d="M33.1336 16.598C33.6171 16.5138 34.0737 16.316 34.4659 16.0208C34.5118 15.9861 34.5576 15.9508 34.6017 15.9142C34.6969 15.8344 34.7873 15.7491 34.8726 15.6588C35.4517 15.0464 35.7549 14.2236 35.7116 13.3818C35.6683 12.5401 35.2822 11.7527 34.6432 11.2031C33.7732 10.4743 32.5796 10.2671 31.5148 10.66C31.8273 11.1504 31.9941 11.7195 31.9959 12.301C31.9959 12.6434 31.7184 12.921 31.376 12.921C31.0336 12.921 30.756 12.6434 30.756 12.301C30.756 11.2738 29.9233 10.4411 28.8961 10.4411C28.5537 10.4411 28.2761 10.1635 28.2761 9.82114C28.2761 9.47874 28.5537 9.20117 28.8961 9.20117C29.5 9.20153 30.0905 9.37939 30.5942 9.71265C31.795 9.06632 33.2319 9.03063 34.4634 9.61655C34.5734 9.46435 34.67 9.30298 34.7523 9.13422C34.7876 9.06821 34.8193 9.00033 34.8472 8.93087C35.0044 8.5222 35.0886 8.08907 35.0958 7.65125C35.0934 5.76905 33.5682 4.24381 31.6859 4.24142C31.5985 4.24142 31.5068 4.247 31.4194 4.25258C31.3499 4.25692 31.2774 4.26808 31.2061 4.27862C31.1348 4.28916 31.0616 4.30652 30.9897 4.32078C31.2434 4.88016 31.375 5.48713 31.376 6.10133C31.376 6.44373 31.0984 6.7213 30.756 6.7213C30.4136 6.7213 30.136 6.44373 30.136 6.10133C30.1384 4.87853 29.4204 3.76904 28.3038 3.27044C27.1873 2.77184 25.8819 2.97768 24.9729 3.79566L24.9661 3.8C24.442 4.27062 24.0946 4.90635 23.9816 5.60163C24.3917 5.70346 24.7673 5.91275 25.0696 6.20796C25.2308 6.36362 25.2954 6.59413 25.2387 6.81089C25.182 7.02765 25.0127 7.19693 24.7959 7.25366C24.5792 7.3104 24.3487 7.24576 24.193 7.0846C23.7025 6.61602 22.9302 6.61602 22.4397 7.0846C22.2841 7.24576 22.0536 7.3104 21.8368 7.25366C21.62 7.19693 21.4508 7.02765 21.394 6.81089C21.3373 6.59413 21.4019 6.36362 21.5631 6.20796C21.8847 5.89304 22.2887 5.67534 22.7286 5.57993C22.8246 4.79344 23.1352 4.04853 23.6264 3.42678C23.5461 3.37599 23.4633 3.32922 23.3784 3.28667C22.4182 2.84233 21.2978 2.91833 20.4065 3.48827C19.5152 4.05821 18.9761 5.04337 18.9766 6.10133V32.14C18.9712 32.7172 19.2404 33.2627 19.7019 33.6094C20.262 34.0448 21.0213 34.1228 21.6582 33.8102C22.2951 33.4977 22.6981 32.8495 22.6964 32.14C22.6964 32.078 22.6896 32.016 22.684 31.954C22.277 31.8316 21.8903 31.6496 21.5364 31.4141C21.3519 31.2915 21.2468 31.0797 21.2608 30.8587C21.2747 30.6376 21.4055 30.4407 21.6039 30.3422C21.8023 30.2437 22.0382 30.2586 22.2227 30.3812C22.5789 30.6164 22.98 30.7749 23.4007 30.8468C23.5775 30.8793 23.7566 30.8971 23.9363 30.9001C25.5164 30.9035 26.8449 29.7151 27.0169 28.1444C27.189 26.5737 26.1492 25.126 24.6059 24.7872C24.0299 25.1356 23.3696 25.3199 22.6964 25.3204C22.354 25.3204 22.0764 25.0428 22.0764 24.7004C22.0764 24.358 22.354 24.0804 22.6964 24.0804C24.066 24.0804 25.1763 22.9702 25.1763 21.6006C25.1763 21.2582 25.4538 20.9806 25.7962 20.9806C26.1386 20.9806 26.4162 21.2582 26.4162 21.6006C26.4166 22.4034 26.1555 23.1845 25.6722 23.8256C26.832 24.3399 27.7122 25.3312 28.0858 26.5436C28.1521 26.5473 28.2098 26.5603 28.278 26.5603C29.9891 26.5583 31.3758 25.1716 31.3778 23.4605C31.3778 23.4437 31.3735 23.4288 31.3735 23.4121C29.6841 23.1735 28.2949 21.9599 27.8316 20.3178C27.1668 20.2305 26.5384 19.9637 26.0139 19.546C25.7463 19.332 25.7028 18.9416 25.9168 18.674C26.1308 18.4064 26.5212 18.363 26.7888 18.577C27.8582 19.432 29.4182 19.2585 30.2737 18.1895C30.4877 17.9221 30.8779 17.8788 31.1453 18.0928C31.4127 18.3068 31.4561 18.697 31.2421 18.9644C30.7091 19.631 29.9623 20.0931 29.128 20.2726C29.5881 21.4403 30.7117 22.2113 31.9668 22.2205C32.7929 22.2246 33.5867 21.9003 34.1736 21.3189C34.7604 20.7375 35.0922 19.9468 35.0958 19.1207C35.0958 19.0227 35.0908 18.9249 35.0809 18.8274V18.8194C35.0484 18.4958 34.966 18.1791 34.8366 17.8807C34.8032 17.8138 34.6835 17.6024 34.5669 17.4089C34.1806 17.6084 33.7663 17.7482 33.3382 17.8237C33.3042 17.8296 33.2697 17.8326 33.2353 17.8324C32.9133 17.8315 32.6456 17.5843 32.6191 17.2634C32.5926 16.9426 32.8161 16.6548 33.1336 16.6011V16.598ZM25.1763 12.921C23.4651 12.923 22.0785 14.3097 22.0764 16.0208C22.0764 16.3632 21.7989 16.6408 21.4565 16.6408C21.1141 16.6408 20.8365 16.3632 20.8365 16.0208C20.8396 13.6253 22.7808 11.6841 25.1763 11.6811C25.5187 11.6811 25.7962 11.9586 25.7962 12.301C25.7962 12.6434 25.5187 12.921 25.1763 12.921Z" fill="currentColor"/>
<path d="M17.7366 6.37225L17.196 5.8242C15.4321 4.01923 13.0149 3.00168 10.4911 3.00168C7.96727 3.00168 5.55007 4.01923 3.7861 5.8242C0.0713015 9.60362 0.0713015 15.663 3.7861 19.4424L17.7366 33.5542V6.37225Z" fill="currentColor"/>
</svg>
