<svg width="25" height="24" viewBox="0 0 25 24" fill="none" xmlns="http://www.w3.org/2000/svg">
    <g clip-path="url(#clip0_2600_174813)">
        <path d="M5.33888 12.9365L16.0192 23.6166C16.2662 23.8638 16.596 24 16.9476 24C17.2992 24 17.6289 23.8638 17.876 23.6166L18.6625 22.8303C19.1743 22.3179 19.1743 21.4851 18.6625 20.9735L9.69397 12.005L18.6724 3.02651C18.9195 2.77929 19.0558 2.44974 19.0558 2.09832C19.0558 1.74652 18.9195 1.41696 18.6724 1.16955L17.8859 0.383411C17.6387 0.136193 17.3091 9.52478e-09 16.9575 -2.12137e-08C16.6059 -5.19521e-08 16.2762 0.136193 16.0291 0.383411L5.33889 11.0733C5.09128 11.3213 4.95528 11.6524 4.95606 12.0044C4.95528 12.3578 5.09128 12.6887 5.33888 12.9365Z" fill="white"/>
    </g>
    <defs>
        <clipPath id="clip0_2600_174813">
            <rect width="24" height="24" fill="white" transform="translate(24.006 24) rotate(-180)"/>
        </clipPath>
    </defs>
</svg>
